module gitlab.com/postgres-ai/database-lab/v2

go 1.15

require (
	github.com/AlekSi/pointer v1.1.0
	github.com/Azure/go-ansiterm v0.0.0-20170929234023-d6e3b3328b78 // indirect
	github.com/Microsoft/go-winio v0.4.16 // indirect
	github.com/StackExchange/wmi v0.0.0-20190523213315-cbe66965904d // indirect
	github.com/aws/aws-sdk-go v1.33.8
	github.com/containerd/containerd v1.4.0 // indirect
	github.com/docker/cli v0.0.0-20200721130541-80fd48bcb7e7
	github.com/docker/distribution v2.7.1+incompatible // indirect
	github.com/docker/docker v1.13.1
	github.com/docker/go-connections v0.4.0 // indirect
	github.com/docker/go-units v0.4.0 // indirect
	github.com/dustin/go-humanize v1.0.0
	github.com/go-ole/go-ole v1.2.4 // indirect
	github.com/gogo/protobuf v1.3.1 // indirect
	github.com/gorilla/mux v1.8.0
	github.com/jackc/pgx/v4 v4.9.0
	github.com/lib/pq v1.8.0
	github.com/morikuni/aec v1.0.0 // indirect
	github.com/opencontainers/go-digest v1.0.0 // indirect
	github.com/opencontainers/image-spec v1.0.1 // indirect
	github.com/pkg/errors v0.9.1
	github.com/robfig/cron/v3 v3.0.1
	github.com/rs/xid v1.2.1
	github.com/sergi/go-diff v1.1.0
	github.com/sethvargo/go-password v0.2.0
	github.com/shirou/gopsutil v2.20.9+incompatible
	github.com/stretchr/testify v1.5.1
	github.com/urfave/cli/v2 v2.1.1
	golang.org/x/crypto v0.0.0-20201124201722-c8d3bf9c5392
	golang.org/x/time v0.0.0-20200630173020-3af7569d3a1e // indirect
	google.golang.org/grpc v1.31.0 // indirect
	gopkg.in/yaml.v2 v2.2.8
	gotest.tools v2.2.0+incompatible // indirect
)

replace github.com/docker/docker v1.13.1 => github.com/docker/engine v0.0.0-20200618181300-9dc6525e6118
